<svg width="20" height="20" viewBox="0 0 20 20" fill="none" xmlns="http://www.w3.org/2000/svg">
<path d="M10 0.799988C4.92386 0.799988 0.800049 4.9238 0.800049 9.99999C0.800049 15.0762 4.92386 19.2 10 19.2C13.0442 19.2 15.7467 17.7179 17.4204 15.4367C17.4533 15.3945 17.4775 15.3462 17.4914 15.2945C17.5053 15.2428 17.5087 15.1888 17.5014 15.1358C17.4941 15.0827 17.4762 15.0317 17.4488 14.9857C17.4214 14.9397 17.3851 14.8997 17.342 14.868C17.2988 14.8363 17.2497 14.8136 17.1977 14.8012C17.1456 14.7888 17.0915 14.787 17.0387 14.7959C16.986 14.8048 16.9355 14.8242 16.8903 14.8529C16.8452 14.8817 16.8062 14.9192 16.7758 14.9633C15.2471 17.0469 12.7847 18.4 10 18.4C5.35624 18.4 1.60005 14.6438 1.60005 9.99999C1.60005 5.35617 5.35624 1.59999 10 1.59999C12.7847 1.59999 15.2471 2.95308 16.7758 5.03671C16.8062 5.08077 16.8452 5.11829 16.8903 5.14704C16.9355 5.17578 16.986 5.19517 17.0387 5.20406C17.0915 5.21294 17.1456 5.21114 17.1977 5.19875C17.2497 5.18637 17.2988 5.16366 17.342 5.13197C17.3851 5.10028 17.4214 5.06025 17.4488 5.01425C17.4762 4.96826 17.4941 4.91723 17.5014 4.8642C17.5087 4.81117 17.5053 4.75721 17.4914 4.70552C17.4775 4.65383 17.4533 4.60545 17.4204 4.56327C15.7467 2.28209 13.0442 0.799988 10 0.799988ZM15.5961 6.39608C15.5166 6.3961 15.4388 6.41985 15.3728 6.4643C15.3068 6.50874 15.2556 6.57186 15.2256 6.64559C15.1957 6.71931 15.1884 6.80029 15.2047 6.87818C15.221 6.95606 15.2602 7.0273 15.3172 7.0828L17.8344 9.59999H9.20005C9.14704 9.59924 9.09442 9.60903 9.04523 9.6288C8.99604 9.64856 8.95128 9.67791 8.91353 9.71512C8.87578 9.75234 8.84581 9.79669 8.82535 9.84559C8.80489 9.8945 8.79435 9.94698 8.79435 9.99999C8.79435 10.053 8.80489 10.1055 8.82535 10.1544C8.84581 10.2033 8.87578 10.2476 8.91353 10.2849C8.95128 10.3221 8.99604 10.3514 9.04523 10.3712C9.09442 10.3909 9.14704 10.4007 9.20005 10.4H17.8344L15.3172 12.9172C15.2788 12.954 15.2482 12.9982 15.2271 13.047C15.206 13.0959 15.1948 13.1485 15.1943 13.2017C15.1937 13.2549 15.2038 13.3077 15.2239 13.357C15.244 13.4062 15.2738 13.451 15.3114 13.4886C15.3491 13.5262 15.3938 13.556 15.4431 13.5761C15.4924 13.5962 15.5451 13.6063 15.5984 13.6058C15.6516 13.6052 15.7042 13.5941 15.753 13.573C15.8019 13.5518 15.846 13.5212 15.8829 13.4828L19.0477 10.318C19.0967 10.2806 19.1364 10.2324 19.1637 10.1771C19.191 10.1219 19.2052 10.061 19.2051 9.9994C19.205 9.93777 19.1907 9.87698 19.1633 9.82179C19.1358 9.7666 19.096 9.7185 19.0469 9.68124L15.8829 6.51718C15.8456 6.47886 15.801 6.4484 15.7518 6.4276C15.7025 6.4068 15.6496 6.39608 15.5961 6.39608Z" fill="#EB5E55" stroke="#EB5E55" stroke-width="0.3"/>
</svg>
